<svg width="14" height="8" viewBox="0 0 14 8" fill="none" xmlns="http://www.w3.org/2000/svg">
<path d="M0.657583 7.07747C0.513377 6.95395 0.459659 6.7042 0.531754 6.52675C0.559386 6.48891 0.595481 6.44509 0.645561 6.38502L0.652038 6.37726C0.697927 6.32224 0.757349 6.251 0.812113 6.17428L6.20818 0.778192C6.25741 0.728966 6.29964 0.687251 6.34237 0.652299C6.36274 0.635641 6.37835 0.624626 6.38925 0.617908C6.3923 0.616027 6.39454 0.614757 6.39598 0.613973L6.4537 0.594779L6.50951 0.557591C6.6246 0.480906 6.83063 0.480679 6.94648 0.557644C7.04095 0.620752 7.10315 0.680693 7.24732 0.825193L7.24773 0.825603L12.8172 6.39504C12.8864 6.46433 12.9464 6.59601 12.9532 6.76456C12.9236 6.9298 12.823 7.05572 12.6636 7.13042C12.5307 7.16728 12.361 7.13768 12.2717 7.07878C12.2053 7.01197 12.0982 6.90613 11.9718 6.82477C10.9154 5.73837 9.83608 4.66939 8.75392 3.59761C8.20415 3.05311 7.65364 2.50789 7.10505 1.95929L6.75637 1.61061L6.40288 1.95442C5.23235 3.09293 4.08021 4.25572 2.93891 5.40758C2.37468 5.97703 1.8131 6.54381 1.25325 7.10366L1.25324 7.10366C1.12988 7.22702 0.864342 7.25844 0.661654 7.081L0.661673 7.08098L0.657583 7.07747Z" fill="black" stroke="black"/>
</svg>
